{
  "version": "1.3.0",
  "endpoints": {
    "baseUrl": "http://integration.mediatechsolutions.es:34100/v1",
    "resources": "http://integration.mediatechsolutions.es:34105/v1/resources",
    "campaignsApi": "http://integration.mediatechsolutions.es:34108/v1",
    "mocksUrl": "http://localhost:9268/v1"
  },
  "keys": {
    "currency": {
      "symbol": "€",
      "code": "EUR",
      "name": "Euro",
      "decimal_digits": 2
    },
    "languages": [
      {
        "value": "en",
        "selected": false,
        "name": "English",
        "cssClasses": "flag flag-us"
      },
      {
        "value": "es",
        "selected": false,
        "name": "Español",
        "cssClasses": "flag flag-es"
      }
    ],
    "overrideEnv": {
      "showSecondName": false,
      "zipCodeValidator": "ES",
      "showFiscalData": true,
      "showSecurityQuestionAnswer": false,
      "showAdditionalDocumentData": false,
      "showAddressNumber": true
    }
  }
}
